src/.Xil/Vivado-3154-ug3/hw_ila_data_1/zip_work/waveform.vcd
$date
        2024-Sep-19 16:46:56
$end
$version
        Vivado v2023.1 (64-bit)
$end
$timescale
        1ps
$end
$scope module dut $end
$var reg 1 " jtag_axi_test_i/seeg_top_0_RHD_CS $end
$var reg 1 # jtag_axi_test_i/seeg_top_0_RHD_MOSI $end
$var reg 1 $ jtag_axi_test_i/seeg_top_0_RHD_SCLK $end
$var reg 1 % jtag_axi_test_i/RHD_MISO1_A_1 $end
$var reg 1 & jtag_axi_test_i/RHD_MISO2_A_1 $end
$var reg 1 ' jtag_axi_test_i/seeg_top_0_RHS_CS $end
$var reg 1 ( jtag_axi_test_i/seeg_top_0_RHS_SCLK $end
$var reg 1 ) jtag_axi_test_i/seeg_top_0_RHS_MOSI_A $end
$var reg 1 * jtag_axi_test_i/RHS_MISO_A_1 $end
$var reg 64 + jtag_axi_test_i/seeg_top_0_M_AXIS_tdata [63:0] $end
$var reg 1 k jtag_axi_test_i/seeg_top_0_M_AXIS_tlast $end
$var reg 1 l jtag_axi_test_i/seeg_top_0_M_AXIS_tvalid $end
$var reg 1 m jtag_axi_test_i/Net $end
$var reg 1 n jtag_axi_test_i/seeg_top_0_RHS_MOSI_B $end
$var reg 1 o jtag_axi_test_i/RHS_MISO_B_1 $end
$var reg 1 p jtag_axi_test_i/seeg_top_0_RHS_MOSI_D $end
$var reg 1 q jtag_axi_test_i/RHS_MISO_D_1 $end
$var reg 1 r jtag_axi_test_i/diff_to_single_1_out $end
$var reg 1 s jtag_axi_test_i/diff_to_single_0_out $end
$var reg 1 t jtag_axi_test_i/seeg_top_0_RHS_MOSI_C $end
$var reg 1 u jtag_axi_test_i/RHS_MISO_C_1 $end
$var reg 1 v _TRIGGER $end
$var reg 1 w _WINDOW $end
$var reg 1 x _GAP $end
$upscope $end
$enddefinitions $end
#0
$dumpvars
1"
0#
0$
0%
0&
1'
0(
0)
0*
b1101101100000000110110110000000011011011000000001101101100 +
0k
0l
1m
0n
0o
0p
1q
0r
0s
0t
1u
0v
1w
0x
$end
#66
0"
1#
#102
1$
#104
1%
1&
#118
0$
#120
0%
#134
1$
#136
1%
#150
0$
#151
0&
#166
1$
#182
0$
#184
0%
#198
1$
#200
1%
1&
#214
0$
#230
1$
#231
0&
#246
0$
#248
0%
#262
1$
#264
1%
1&
#278
0$
#280
0%
#294
1$
#295
0&
#296
1%
#310
0$
#312
0%
#326
1$
#328
1%
1&
#342
0#
0$
#343
0&
#344
0%
#358
1$
#360
1%
1&
#374
0$
#375
0&
#390
1$
#406
0$
#422
1$
#424
1&
#438
0$
#439
0&
#440
0%
#454
1$
#456
1%
#470
0$
#486
1$
#502
0$
#504
1&
#518
1$
#520
0&
#534
0$
#550
1$
#566
0$
#568
0%
#582
1$
#584
1%
#598
0$
#614
1"
#616
0%
#784
1l
#785
0l
#846
0"
1#
#882
1$
#898
0$
#914
1$
#930
0$
#946
1$
#962
0$
#978
1$
#994
0$
#1010
1$
#1026
0$
#1042
1$
#1058
0$
#1074
1$
#1090
0$
#1106
1$
#1122
0#
0$
#1138
1$
#1154
0$
#1170
1$
#1186
0$
#1202
1$
#1218
0$
#1234
1$
#1250
0$
#1266
1$
#1282
0$
#1298
1$
#1299
1&
#1300
1%
#1314
0$
#1330
1$
#1331
0&
#1332
0%
#1346
0$
#1362
1$
#1378
0$
#1394
1"
#1626
0"
1#
#1662
1$
#1678
0#
0$
#1694
1$
#1710
0$
#1726
1$
#1742
0$
#1758
1$
#1774
0$
#1790
1$
#1806
1#
0$
#1822
1$
#1838
0$
#1854
1$
#1870
0#
0$
#1886
1$
#1902
1#
0$
#1918
1$
#1934
0$
#1950
1$
#1966
0$
#1982
1$
#1998
0$
#2014
1$
#2030
0$
#2046
1$
#2062
0#
0$
#2078
1$
#2080
1%
1&
#2094
0$
#2110
1$
#2111
0&
#2112
0%
#2126
1#
0$
#2142
1$
#2158
0$
#2174
1"
#2290
0#
#2406
0"
#2442
1$
#2458
0$
#2474
1$
#2490
0$
#2506
1$
#2522
0$
#2538
1$
#2554
1#
0$
#2570
1$
#2586
0$
#2602
1$
#2618
0#
0$
#2634
1$
#2650
0$
#2666
1$
#2682
0$
#2698
1$
#2714
0$
#2730
1$
#2746
0$
#2762
1$
#2778
0$
#2794
1$
#2810
0$
#2826
1$
#2842
0$
#2858
1$
#2859
1%
1&
#2874
0$
#2890
1$
#2891
0%
0&
#2906
0$
#2922
1$
#2938
0$
#2954
1"
#3186
0"
1#
#3222
1$
#3223
1&
#3224
1%
#3238
0$
#3254
1$
#3270
0$
#3286
1$
#3302
0$
#3318
1$
#3334
0$
#3350
1$
#3366
0$
#3382
1$
#3398
0$
#3414
1$
#3430
0$
#3446
1$
#3462
0#
0$
#3478
1$
#3494
0$
#3510
1$
#3526
0$
#3542
1$
#3558
0$
#3574
1$
#3590
0$
#3606
1$
#3622
0$
#3638
1$
#3639
0&
#3640
0%
#3654
0$
#3670
1$
#3686
0$
#3702
1$
#3704
1%
1&
#3718
0$
#3734
1"
#3736
0%
0&
#3966
0"
1#
#4002
1$
#4004
1%
1&
#4018
0$
#4020
0%
#4034
1$
#4036
1%
#4050
0$
#4051
0&
#4066
1$
#4068
1&
#4082
0$
#4083
0&
#4084
0%
#4098
1$
#4100
1%
#4114
0$
#4116
1&
#4130
1$
#4131
0&
#4146
0$
#4148
0%
1&
#4162
1$
#4164
1%
#4178
0$
#4179
0&
#4194
1$
#4210
0$
#4212
0%
#4226
1$
#4228
1%
#4242
0#
0$
#4244
1&
#4258
1$
#4259
0&
#4274
0$
#4290
1$
#4306
0$
#4322
1$
#4338
0$
#4340
0%
1&
#4354
1$
#4355
0&
#4356
1%
#4370
0$
#4386
1$
#4402
0$
#4404
0%
1&
#4418
1$
#4420
1%
0&
#4434
0$
#4450
1$
#4466
0$
#4468
0%
1&
#4482
1$
#4484
1%
0&
#4498
0$
#4514
1"
#4516
0%
#4746
0"
1#
#4782
1$
#4798
0$
#4814
1$
#4830
0$
#4846
1$
#4862
0$
#4878
1$
#4894
0$
#4910
1$
#4926
0$
#4942
1$
#4958
0$
#4974
1$
#4990
0$
#5006
1$
#5022
0#
0$
#5038
1$
#5054
0$
#5070
1$
#5086
0$
#5102
1$
#5118
0$
#5134
1$
#5150
0$
#5166
1$
#5182
0$
#5198
1$
#5199
1%
1&
#5214
0$
#5230
1$
#5231
0&
#5232
0%
#5246
0$
#5262
1$
#5278
0$
#5294
1"
#5526
0"
1#
#5562
1$
#5578
0#
0$
#5594
1$
#5610
0$
#5626
1$
#5642
0$
#5658
1$
#5674
0$
#5690
1$
#5706
1#
0$
#5722
1$
#5738
0$
#5754
1$
#5770
0#
0$
#5786
1$
#5802
1#
0$
#5818
1$
#5834
0$
#5850
1$
#5866
0$
#5882
1$
#5898
0$
#5914
1$
#5930
0$
#5946
1$
#5962
0$
#5978
1$
#5980
1%
1&
#5994
0$
#6010
1$
#6011
0&
#6012
0%
#6026
0$
#6042
1$
#6058
0$
#6074
1"
#6190
0#
#6306
0"
#6342
1$
#6358
0$
#6374
1$
#6390
0$
#6406
1$
#6422
0$
#6438
1$
#6454
1#
0$
#6470
1$
#6486
0$
#6502
1$
#6518
0#
0$
#6534
1$
#6550
0$
#6566
1$
#6582
0$
#6598
1$
#6614
0$
#6630
1$
#6646
0$
#6662
1$
#6678
0$
#6694
1$
#6710
0$
#6726
1$
#6742
0$
#6758
1$
#6760
1%
1&
#6774
0$
#6790
1$
#6791
0&
#6792
0%
#6806
0$
#6822
1$
#6838
0$
#6854
1"
#7086
0"
1#
#7122
1$
#7123
1%
1&
#7138
0$
#7154
1$
#7170
0$
#7186
1$
#7202
0$
#7218
1$
#7234
0$
#7250
1$
#7266
0$
#7282
1$
#7298
0$
#7314
1$
#7330
0$
#7346
1$
#7362
0#
0$
#7378
1$
#7394
0$
#7410
1$
#7426
0$
#7442
1$
#7458
0$
#7474
1$
#7490
0$
#7506
1$
#7522
0$
#7538
1$
#7554
0$
#7570
1$
#7586
0$
#7602
1$
#7618
0$
#7634
1"
#7636
0%
0&
#7866
0"
1#
#7902
1$
#7904
1%
1&
#7918
0$
#7920
0%
#7934
1$
#7936
1%
#7950
0$
#7951
0&
#7966
1$
#7968
1&
#7982
0$
#7998
1$
#8014
0$
#8015
0&
#8016
0%
#8030
1$
#8032
1%
1&
#8046
0$
#8062
1$
#8078
0$
#8094
1$
#8110
0$
#8111
0&
#8126
1$
#8128
1&
#8142
0#
0$
#8158
1$
#8174
0$
#8175
0&
#8190
1$
#8192
1&
#8206
0$
#8208
0%
#8222
1$
#8224
1%
#8238
0$
#8254
1$
#8270
0$
#8286
1$
#8302
0$
#8303
0&
#8304
0%
#8318
1$
#8320
1%
1&
#8334
0$
#8350
1$
#8366
0$
#8368
0%
#8382
1$
#8384
1%
#8398
0$
#8399
0&
#8414
1"
#8416
0%
#8646
0"
1#
#8682
1$
#8698
0$
#8714
1$
#8730
0$
#8746
1$
#8762
0$
#8778
1$
#8794
0$
#8810
1$
#8826
0$
#8842
1$
#8858
0$
#8874
1$
#8890
0$
#8906
1$
#8922
0#
0$
#8938
1$
#8954
0$
#8970
1$
#8986
0$
#9002
1$
#9018
0$
#9034
1$
#9050
0$
#9066
1$
#9082
0$
#9098
1$
#9099
1%
1&
#9114
0$
#9130
1$
#9131
0%
0&
#9146
0$
#9162
1$
#9178
0$
#9194
1"
#9426
0"
1#
#9462
1$
#9478
0#
0$
#9494
1$
#9510
0$
#9526
1$
#9542
0$
#9558
1$
#9574
0$
#9590
1$
#9606
1#
0$
#9622
1$
#9638
0$
#9654
1$
#9670
0#
0$
#9686
1$
#9702
1#
0$
#9718
1$
#9734
0$
#9750
1$
#9766
0$
#9782
1$
#9798
0$
#9814
1$
#9830
0$
#9846
1$
#9862
0#
0$
#9878
1$
#9880
1%
1&
#9894
0$
#9910
1$
#9911
0&
#9912
0%
#9926
1#
0$
#9942
1$
#9958
0$
#9974
1"
#10090
0#
#10206
0"
#10242
1$
#10258
0$
#10274
1$
#10290
0$
#10306
1$
#10322
0$
#10338
1$
#10354
1#
0$
#10370
1$
#10386
0$
#10402
1$
#10418
0#
0$
#10434
1$
#10450
0$
#10466
1$
#10482
0$
#10498
1$
#10514
0$
#10530
1$
#10546
0$
#10562
1$
#10578
0$
#10594
1$
#10610
0$
#10626
1$
#10642
0$
#10658
1$
#10660
1%
1&
#10674
0$
#10690
1$
#10692
0%
0&
#10706
0$
#10722
1$
#10738
0$
#10754
1"
#10986
0"
1#
#11022
1$
#11023
1%
1&
#11038
0$
#11054
1$
#11070
0$
#11086
1$
#11102
0$
#11118
1$
#11134
0$
#11150
1$
#11166
0$
#11182
1$
#11198
0$
#11214
1$
#11230
0$
#11246
1$
#11262
0#
0$
#11278
1$
#11294
0$
#11310
1$
#11326
0$
#11342
1$
#11358
0$
#11374
1$
#11390
0$
#11406
1$
#11422
0$
#11438
1$
#11439
0&
#11440
0%
#11454
0$
#11470
1$
#11486
0$
#11502
1$
#11503
1&
#11504
1%
#11518
0$
#11534
1"
#11536
0%
0&
#11766
0"
1#
#11802
1$
#11804
1%
1&
#11818
0$
#11819
0%
#11834
1$
#11836
1%
#11850
0$
#11851
0&
#11866
1$
#11868
1&
#11882
0$
#11898
1$
#11914
0$
#11930
1$
#11931
0&
#11946
0$
#11962
1$
#11964
1&
#11978
0$
#11979
0&
#11980
0%
#11994
1$
#11996
1%
1&
#12010
0$
#12011
0&
#12012
0%
#12026
1$
#12028
1%
#12042
0#
0$
#12058
1$
#12060
0%
#12074
0$
#12076
1%
#12090
1$
#12092
0%
1&
#12106
0$
#12122
1$
#12124
1%
#12138
0$
#12154
1$
#12155
0&
#12170
0$
#12172
0%
1&
#12186
1$
#12188
1%
#12202
0$
#12204
0%
#12218
1$
#12220
1%
#12234
0$
#12250
1$
#12266
0$
#12268
0%
#12282
1$
#12284
1%
#12298
0$
#12300
0%
#12314
1"
#12316
0&
#12546
0"
1#
#12582
1$
#12598
0$
#12614
1$
#12630
0$
#12646
1$
#12662
0$
#12678
1$
#12694
0$
#12710
1$
#12726
0$
#12742
1$
#12758
0$
#12774
1$
#12790
0$
#12806
1$
#12822
0#
0$
#12838
1$
#12854
0$
#12870
1$
#12886
0$
#12902
1$
#12918
0$
#12934
1$
#12950
0$
#12966
1$
#12982
0$
#12998
1$
#12999
1&
#13000
1%
#13014
0$
#13030
1$
#13031
0&
#13032
0%
#13046
0$
#13062
1$
#13078
0$
#13094
1"
#13326
0"
1#
#13362
1$
#13378
0#
0$
#13394
1$
#13410
0$
#13426
1$
#13442
0$
#13458
1$
#13474
0$
#13490
1$
#13506
1#
0$
#13522
1$
#13538
0$
#13554
1$
#13570
0#
0$
#13586
1$
#13602
1#
0$
#13618
1$
#13634
0$
#13650
1$
#13666
0$
#13682
1$
#13698
0#
0$
#13714
1$
#13730
0$
#13746
1$
#13762
1#
0$
#13778
1$
#13779
1&
#13780
1%
#13794
0$
#13810
1$
#13811
0&
#13812
0%
#13826
0$
#13842
1$
#13858
0$
#13874
1"
#13990
0#
#14106
0"
#14142
1$
#14158
0$
#14174
1$
#14190
0$
#14206
1$
#14222
0$
#14238
1$
#14254
1#
0$
#14270
1$
#14286
0$
#14302
1$
#14318
0#
0$
#14334
1$
#14350
0$
#14366
1$
#14382
0$
#14398
1$
#14414
0$
#14430
1$
#14446
0$
#14462
1$
#14478
0$
#14494
1$
#14510
0$
#14526
1$
#14542
0$
#14558
1$
#14560
1%
1&
#14574
0$
#14590
1$
#14592
0%
0&
#14606
0$
#14622
1$
#14638
0$
#14654
1"
#14886
0"
1#
#14922
1$
#14924
1%
1&
#14938
0$
#14954
1$
#14970
0$
#14986
1$
#15002
0$
#15018
1$
#15034
0$
#15050
1$
#15066
0$
#15082
1$
#15098
0$
#15114
1$
#15130
0$
#15146
1$
#15162
0#
0$
#15178
1$
#15194
0$
#15210
1$
#15226
0$
#15242
1$
#15258
0$
#15274
1$
#15275
0%
0&
#15290
0$
#15306
1$
#15322
0$
#15338
1$
#15339
1%
1&
#15354
0$
#15370
1$
#15386
0$
#15402
1$
#15418
0$
#15434
1"
#15436
0%
0&
#15666
0"
1#
#15702
1$
#15703
1&
#15704
1%
#15718
0$
#15719
0%
#15734
1$
#15736
1%
#15750
0$
#15751
0&
#15766
1$
#15767
1&
#15782
0$
#15798
1$
#15814
0$
#15815
0&
#15830
1$
#15832
0%
#15846
0$
#15848
1&
#15862
1$
#15863
0&
#15864
1%
#15878
0$
#15879
0%
#15894
1$
#15910
0$
#15912
1%
#15926
1$
#15928
0%
#15942
0#
0$
#15944
1%
#15958
1$
#15974
0$
#15976
0%
#15990
1$
#16006
0$
#16008
1%
1&
#16022
1$
#16023
0&
#16024
0%
#16038
0$
#16054
1$
#16070
0$
#16072
1%
#16086
1$
#16088
0%
#16102
0$
#16104
1%
#16118
1$
#16134
0$
#16136
0%
1&
#16150
1$
#16151
0&
#16152
1%
#16166
0$
#16182
1$
#16198
0$
#16200
0%
1&
#16214
1"
#16216
0&
#16384
1l
1v
#16385
0l
#16446
0"
1#
#16482
1$
#16498
0$
#16514
1$
#16530
0$
#16546
1$
#16562
0$
#16578
1$
#16594
0$
#16610
1$
#16626
0$
#16642
1$
#16658
0$
#16674
1$
#16690
0$
#16706
1$
#16722
0#
0$
#16738
1$
#16754
0$
#16770
1$
#16786
0$
#16802
1$
#16818
0$
#16834
1$
#16850
0$
#16866
1$
#16882
0$
#16898
1$
#16900
1%
1&
#16914
0$
#16930
1$
#16932
0%
0&
#16946
0$
#16962
1$
#16978
0$
#16994
1"
#17226
0"
1#
#17262
1$
#17278
0#
0$
#17294
1$
#17310
0$
#17326
1$
#17342
0$
#17358
1$
#17374
0$
#17390
1$
#17406
1#
0$
#17422
1$
#17438
0$
#17454
1$
#17470
0#
0$
#17486
1$
#17502
1#
0$
#17518
1$
#17534
0$
#17550
1$
#17566
0#
0$
#17582
1$
#17598
0$
#17614
1$
#17630
1#
0$
#17646
1$
#17662
0#
0$
#17678
1$
#17679
1&
#17680
1%
#17694
1#
0$
#17710
1$
#17711
0&
#17712
0%
#17726
0$
#17742
1$
#17758
0$
#17774
1"
#17890
0#
#18006
0"
#18042
1$
#18058
0$
#18074
1$
#18090
0$
#18106
1$
#18122
0$
#18138
1$
#18154
1#
0$
#18170
1$
#18186
0$
#18202
1$
#18218
0#
0$
#18234
1$
#18250
0$
#18266
1$
#18282
0$
#18298
1$
#18314
0$
#18330
1$
#18346
0$
#18362
1$
#18378
0$
#18394
1$
#18410
0$
#18426
1$
#18442
0$
#18458
1$
#18460
1%
1&
#18474
0$
#18490
1$
#18491
0&
#18492
0%
#18506
0$
#18522
1$
#18538
0$
#18554
1"
#18786
0"
1#
#18822
1$
#18824
1%
1&
#18838
0$
#18854
1$
#18870
0$
#18886
1$
#18902
0$
#18918
1$
#18934
0$
#18950
1$
#18966
0$
#18982
1$
#18998
0$
#19014
1$
#19030
0$
#19046
1$
#19062
0#
0$
#19078
1$
#19094
0$
#19110
1$
#19126
0$
#19142
1$
#19143
0&
#19144
0%
#19158
0$
#19174
1$
#19190
0$
#19206
1$
#19207
1%
1&
#19222
0$
#19238
1$
#19239
0%
0&
#19254
0$
#19270
1$
#19271
1%
1&
#19286
0$
#19302
1$
#19318
0$
#19334
1"
#19336
0%
0&
#19566
0"
1#
#19602
1$
#19603
1&
#19604
1%
#19618
0$
#19619
0%
#19634
1$
#19635
1%
#19650
0$
#19651
0&
#19666
1$
#19667
1&
#19668
0%
#19682
0$
#19683
0&
#19698
1$
#19699
1&
#19700
1%
#19714
0$
#19730
1$
#19731
0&
#19746
0$
#19747
1&
#19762
1$
#19763
0&
#19764
0%
#19778
0$
#19779
1%
#19794
1$
#19796
0%
#19810
0$
#19811
1%
#19826
1$
#19827
1&
#19828
0%
#19842
0#
0$
#19844
1%
#19858
1$
#19859
0&
#19860
0%
#19874
0$
#19876
1%
1&
#19890
1$
#19892
0%
#19906
0$
#19907
0&
#19908
1%
#19922
1$
#19924
0%
#19938
0$
#19940
1%
#19954
1$
#19956
0%
#19970
0$
#19972
1%
1&
#19986
1$
#19987
0&
#19988
0%
#20002
0$
#20004
1%
#20018
1$
#20020
0%
#20034
0$
#20036
1%
#20050
1$
#20052
0%
#20066
0$
#20068
1%
#20082
1$
#20084
0%
#20098
0$
#20100
1%
1&
#20114
1"
#20116
0%
0&
#20346
0"
1#
#20382
1$
#20398
0$
#20414
1$
#20430
0$
#20446
1$
#20462
0$
#20478
1$
#20494
0$
#20510
1$
#20526
0$
#20542
1$
#20558
0$
#20574
1$
#20590
0$
#20606
1$
#20622
0#
0$
#20638
1$
#20654
0$
#20670
1$
#20686
0$
#20702
1$
#20718
0$
#20734
1$
#20750
0$
#20766
1$
#20782
0$
#20798
1$
#20800
1%
1&
#20814
0$
#20830
1$
#20832
0%
0&
#20846
0$
#20862
1$
#20878
0$
#20894
1"
#21126
0"
1#
#21162
1$
#21178
0#
0$
#21194
1$
#21210
0$
#21226
1$
#21242
0$
#21258
1$
#21274
0$
#21290
1$
#21306
1#
0$
#21322
1$
#21338
0$
#21354
1$
#21370
0#
0$
#21386
1$
#21402
1#
0$
#21418
1$
#21434
0#
0$
#21450
1$
#21466
1#
0$
#21482
1$
#21498
0#
0$
#21514
1$
#21530
0$
#21546
1$
#21562
1#
0$
#21578
1$
#21579
1%
1&
#21594
0$
#21610
1$
#21611
0&
#21612
0%
#21626
0$
#21642
1$
#21658
0$
#21674
1"
#21790
0#
#21906
0"
#21942
1$
#21958
0$
#21974
1$
#21990
0$
#22006
1$
#22022
0$
#22038
1$
#22054
1#
0$
#22070
1$
#22086
0$
#22102
1$
#22118
0#
0$
#22134
1$
#22150
0$
#22166
1$
#22182
0$
#22198
1$
#22214
0$
#22230
1$
#22246
0$
#22262
1$
#22278
0$
#22294
1$
#22310
0$
#22326
1$
#22342
0$
#22358
1$
#22360
1%
1&
#22374
0$
#22390
1$
#22391
0&
#22392
0%
#22406
0$
#22422
1$
#22438
0$
#22454
1"
#22686
0"
1#
#22722
1$
#22724
1%
1&
#22738
0$
#22754
1$
#22770
0$
#22786
1$
#22802
0$
#22818
1$
#22834
0$
#22850
1$
#22866
0$
#22882
1$
#22898
0$
#22914
1$
#22930
0$
#22946
1$
#22962
0#
0$
#22978
1$
#22994
0$
#23010
1$
#23012
0%
0&
#23026
0$
#23042
1$
#23044
1%
1&
#23058
0$
#23074
1$
#23076
0%
0&
#23090
0$
#23106
1$
#23122
0$
#23138
1$
#23140
1%
1&
#23154
0$
#23170
1$
#23186
0$
#23202
1$
#23218
0$
#23234
1"
#23236
0%
0&
#23466
0"
1#
#23502
1$
#23503
1%
1&
#23518
0$
#23519
0%
#23534
1$
#23550
0$
#23551
1%
0&
#23566
1$
#23582
0$
#23583
0%
#23598
1$
#23599
1%
1&
#23614
0$
#23630
1$
#23646
0$
#23662
1$
#23663
0&
#23664
0%
#23678
0$
#23679
1%
1&
#23694
1$
#23695
0&
#23696
0%
#23710
0$
#23726
1$
#23742
0#
0$
#23744
1%
#23758
1$
#23760
0%
#23774
0$
#23775
1%
#23790
1$
#23792
0%
#23806
0$
#23807
1%
1&
#23822
1$
#23823
0&
#23838
0$
#23854
1$
#23856
0%
#23870
0$
#23886
1$
#23902
0$
#23903
1%
#23918
1$
#23920
0%
#23934
0$
#23935
1%
#23950
1$
#23952
0%
#23966
0$
#23968
1%
#23982
1$
#23984
0%
#23998
0$
#24000
1%
#24014
1"
#24016
0%
#24246
0"
1#
#24282
1$
#24298
0$
#24314
1$
#24330
0$
#24346
1$
#24362
0$
#24378
1$
#24394
0$
#24410
1$
#24426
0$
#24442
1$
#24458
0$
#24474
1$
#24490
0$
#24506
1$
#24522
0#
0$
#24538
1$
#24554
0$
#24570
1$
#24586
0$
#24602
1$
#24618
0$
#24634
1$
#24650
0$
#24666
1$
#24682
0$
#24698
1$
#24700
1%
1&
#24714
0$
#24730
1$
#24732
0%
0&
#24746
0$
#24762
1$
#24778
0$
#24794
1"
#25026
0"
1#
#25062
1$
#25078
0#
0$
#25094
1$
#25110
0$
#25126
1$
#25142
0$
#25158
1$
#25174
0$
#25190
1$
#25206
1#
0$
#25222
1$
#25238
0$
#25254
1$
#25270
0#
0$
#25286
1$
#25302
1#
0$
#25318
1$
#25334
0#
0$
#25350
1$
#25366
0$
#25382
1$
#25398
0$
#25414
1$
#25430
0$
#25446
1$
#25462
0$
#25478
1$
#25479
1%
1&
#25494
0$
#25510
1$
#25511
0%
0&
#25526
0$
#25542
1$
#25558
0$
#25574
1"
#25806
0"
#25842
1$
#25858
0$
#25874
1$
#25890
0$
#25906
1$
#25922
0$
#25938
1$
#25954
1#
0$
#25970
1$
#25986
0$
#26002
1$
#26018
0#
0$
#26034
1$
#26050
0$
#26066
1$
#26082
0$
#26098
1$
#26114
0$
#26130
1$
#26146
0$
#26162
1$
#26178
0$
#26194
1$
#26210
0$
#26226
1$
#26242
0$
#26258
1$
#26260
1%
1&
#26274
0$
#26290
1$
#26291
0&
#26292
0%
#26306
0$
#26322
1$
#26338
0$
#26354
1"
#26586
0"
1#
#26622
1$
#26624
1%
1&
#26638
0$
#26654
1$
#26670
0$
#26686
1$
#26702
0$
#26718
1$
#26734
0$
#26750
1$
#26766
0$
#26782
1$
#26798
0$
#26814
1$
#26830
0$
#26846
1$
#26862
0#
0$
#26878
1$
#26894
0$
#26910
1$
#26912
0%
0&
#26926
0$
#26942
1$
#26958
0$
#26974
1$
#26990
0$
#27006
1$
#27022
0$
#27038
1$
#27054
0$
#27070
1$
#27086
0$
#27102
1$
#27118
0$
#27134
1"
#27366
0"
1#
#27402
1$
#27403
1%
1&
#27418
0$
#27419
0%
#27434
1$
#27435
0&
#27450
0$
#27451
1%
#27466
1$
#27467
0%
1&
#27482
0$
#27483
1%
0&
#27498
1$
#27499
1&
#27514
0$
#27515
0%
#27530
1$
#27531
0&
#27546
0$
#27547
1&
#27562
1$
#27563
0&
#27578
0$
#27579
1%
1&
#27594
1$
#27595
0%
0&
#27610
0$
#27611
1&
#27626
1$
#27627
0&
#27642
0#
0$
#27658
1$
#27659
1&
#27674
0$
#27675
0&
#27690
1$
#27691
1%
1&
#27706
0$
#27707
0%
0&
#27722
1$
#27738
0$
#27739
1&
#27754
1$
#27755
1%
0&
#27770
0$
#27786
1$
#27802
0$
#27803
0%
1&
#27818
1$
#27819
1%
0&
#27834
0$
#27850
1$
#27866
0$
#27867
0%
1&
#27882
1$
#27883
1%
0&
#27898
0$
#27914
1"
#27916
0%
#28146
0"
1#
#28182
1$
#28198
0$
#28214
1$
#28230
0$
#28246
1$
#28262
0$
#28278
1$
#28294
0$
#28310
1$
#28326
0$
#28342
1$
#28358
0$
#28374
1$
#28390
0$
#28406
1$
#28422
0#
0$
#28438
1$
#28454
0$
#28470
1$
#28486
0$
#28502
1$
#28518
0$
#28534
1$
#28550
0$
#28566
1$
#28582
0$
#28598
1$
#28600
1%
1&
#28614
0$
#28630
1$
#28631
0&
#28632
0%
#28646
0$
#28662
1$
#28678
0$
#28694
1"
#28926
0"
1#
#28962
1$
#28978
0#
0$
#28994
1$
#29010
0$
#29026
1$
#29042
0$
#29058
1$
#29074
0$
#29090
1$
#29106
1#
0$
#29122
1$
#29138
0$
#29154
1$
#29170
0#
0$
#29186
1$
#29202
0$
#29218
1$
#29234
1#
0$
#29250
1$
#29266
0#
0$
#29282
1$
#29298
1#
0$
#29314
1$
#29330
0$
#29346
1$
#29362
0#
0$
#29378
1$
#29379
1%
1&
#29394
0$
#29410
1$
#29411
0%
0&
#29426
1#
0$
#29442
1$
#29458
0$
#29474
1"
#29590
0#
#29706
0"
#29742
1$
#29758
0$
#29774
1$
#29790
0$
#29806
1$
#29822
0$
#29838
1$
#29854
1#
0$
#29870
1$
#29886
0$
#29902
1$
#29918
0#
0$
#29934
1$
#29950
0$
#29966
1$
#29982
0$
#29998
1$
#30014
0$
#30030
1$
#30046
0$
#30062
1$
#30078
0$
#30094
1$
#30110
0$
#30126
1$
#30142
0$
#30158
1$
#30160
1%
1&
#30174
0$
#30190
1$
#30191
0&
#30192
0%
#30206
0$
#30222
1$
#30238
0$
#30254
1"
#30486
0"
1#
#30522
1$
#30524
1%
1&
#30538
0$
#30554
1$
#30570
0$
#30586
1$
#30602
0$
#30618
1$
#30634
0$
#30650
1$
#30666
0$
#30682
1$
#30698
0$
#30714
1$
#30730
0$
#30746
1$
#30762
0#
0$
#30778
1$
#30779
0&
#30780
0%
#30794
0$
#30810
1$
#30812
1%
1&
#30826
0$
#30842
1$
#30844
0%
0&
#30858
0$
#30874
1$
#30876
1%
1&
#30890
0$
#30906
1$
#30922
0$
#30938
1$
#30940
0%
0&
#30954
0$
#30970
1$
#30986
0$
#31002
1$
#31004
1%
1&
#31018
0$
#31034
1"
#31036
0%
0&
#31266
0"
1#
#31302
1$
#31318
0$
#31320
1&
#31334
1$
#31336
1%
#31350
0$
#31351
0&
#31366
1$
#31367
1&
#31382
0$
#31383
0&
#31398
1$
#31399
1&
#31400
0%
#31414
0$
#31430
1$
#31431
1%
#31446
0$
#31447
0%
#31462
1$
#31478
0$
#31479
0&
#31494
1$
#31495
1%
1&
#31510
0$
#31511
0%
#31526
1$
#31527
1%
0&
#31542
0#
0$
#31543
0%
1&
#31558
1$
#31574
0$
#31575
0&
#31590
1$
#31606
0$
#31607
1%
1&
#31622
1$
#31623
0&
#31638
0$
#31639
0%
1&
#31654
1$
#31655
0&
#31670
0$
#31671
1%
#31686
1$
#31687
1&
#31702
0$
#31703
0%
#31718
1$
#31719
1%
0&
#31734
0$
#31735
0%
#31750
1$
#31766
0$
#31767
1&
#31782
1$
#31783
1%
#31798
0$
#31799
0&
#31814
1"
#31816
0%
#31984
1l
#31985
0l
#32046
0"
1#
#32082
1$
#32098
0$
#32114
1$
#32130
0$
#32146
1$
#32162
0$
#32178
1$
#32194
0$
#32210
1$
#32226
0$
#32242
1$
#32258
0$
#32274
1$
#32290
0$
#32306
1$
#32322
0#
0$
#32338
1$
#32354
0$
#32370
1$
#32386
0$
#32402
1$
#32418
0$
#32434
1$
#32450
0$
#32466
1$
#32482
0$
#32498
1$
#32500
1%
1&
#32514
0$
#32530
1$
#32531
0&
#32532
0%
#32546
0$
#32562
1$
#32578
0$
#32594
1"
