src/.Xil/Vivado-3154-ug3/hw_ila_data_1/zip_work/waveform.vcd
$date
        2024-Sep-17 16:33:29
$end
$version
        Vivado v2023.1 (64-bit)
$end
$timescale
        1ps
$end
$scope module dut $end
$var reg 1 " jtag_axi_test_i/seeg_top_0_RHD_CS $end
$var reg 1 # jtag_axi_test_i/seeg_top_0_RHD_MOSI $end
$var reg 1 $ jtag_axi_test_i/seeg_top_0_RHD_SCLK $end
$var reg 1 % jtag_axi_test_i/RHD_MISO1_A_1 $end
$var reg 1 & jtag_axi_test_i/RHD_MISO2_A_1 $end
$var reg 1 ' jtag_axi_test_i/seeg_top_0_RHS_CS $end
$var reg 1 ( jtag_axi_test_i/seeg_top_0_RHS_SCLK $end
$var reg 1 ) jtag_axi_test_i/seeg_top_0_RHS_MOSI_A $end
$var reg 1 * jtag_axi_test_i/RHS_MISO_A_1 $end
$var reg 64 + jtag_axi_test_i/seeg_top_0_M_AXIS_tdata [63:0] $end
$var reg 1 k jtag_axi_test_i/seeg_top_0_M_AXIS_tlast $end
$var reg 1 l jtag_axi_test_i/seeg_top_0_M_AXIS_tvalid $end
$var reg 1 m jtag_axi_test_i/axis_data_fifo_0_s_axis_tready $end
$var reg 1 n _TRIGGER $end
$var reg 1 o _WINDOW $end
$var reg 1 p _GAP $end
$upscope $end
$enddefinitions $end
#0
$dumpvars
1"
0#
0$
0%
0&
1'
0(
0)
0*
b0 +
1k
1l
1m
1n
1o
0p
$end
#1
0k
0l
#29
0'
1)
#47
1(
#55
0(
#63
1(
#71
0(
#79
1(
#87
0(
0)
#95
1(
#103
0(
#111
1(
#119
0(
#127
1(
#135
0(
#143
1(
#151
0(
#159
1(
#167
0(
1)
#175
1(
#183
0(
#191
1(
#199
0(
#207
1(
#215
0(
#223
1(
#231
0(
#239
1(
#247
0(
#255
1(
#263
0(
#271
1(
#279
0(
#287
1(
#295
0(
0)
#303
1(
#311
0(
#319
1(
#327
0(
#335
1(
#343
0(
#351
1(
#359
0(
#367
1(
#375
0(
#383
1(
#391
0(
#399
1(
#407
0(
#415
1(
#423
0(
#431
1(
#439
0(
#447
1(
#455
0(
#457
1*
#463
1(
#471
0(
#473
0*
#479
1(
#487
0(
#495
1(
#503
0(
#511
1(
#519
0(
#527
1(
#535
0(
#543
1(
#551
0(
#635
1'
#675
0'
1)
#693
1(
#701
0(
#709
1(
#717
0(
#725
1(
#733
0(
0)
#741
1(
#749
0(
#757
1(
#765
0(
#773
1(
#781
0(
#789
1(
#797
0(
#805
1(
#813
0(
1)
#821
1(
#829
0(
#837
1(
#845
0(
#853
1(
#861
0(
#869
1(
#877
0(
#885
1(
#893
0(
#901
1(
#909
0(
#917
1(
#925
0(
#933
1(
#941
0(
0)
