src/.Xil/Vivado-2922-ug3/hw_ila_data_2/zip_work/waveform.vcd
$date
        2024-Sep-20 17:02:19
$end
$version
        Vivado v2023.1 (64-bit)
$end
$timescale
        1ps
$end
$scope module dut $end
$var reg 1 " jtag_axi_test_i/seeg_top_0_RHS_MOSI_A $end
$var reg 1 # jtag_axi_test_i/seeg_top_0_RHS_MOSI_B $end
$var reg 1 $ jtag_axi_test_i/seeg_top_0_RHS_MOSI_C $end
$var reg 1 % jtag_axi_test_i/seeg_top_0_RHS_MOSI_D $end
$var reg 1 & jtag_axi_test_i/seeg_top_0_RHS_MOSI_E $end
$var reg 1 ' jtag_axi_test_i/seeg_top_0_RHS_MOSI_F $end
$var reg 1 ( jtag_axi_test_i/seeg_top_0_RHS_MOSI_G $end
$var reg 1 ) jtag_axi_test_i/seeg_top_0_RHS_MOSI_H $end
$var reg 1 * jtag_axi_test_i/seeg_top_0_RHS_MOSI_I_DEBUG $end
$var reg 1 + jtag_axi_test_i/seeg_top_0_RHS_MOSI_J_DEBUG $end
$var reg 1 , jtag_axi_test_i/seeg_top_0_RHS_MOSI_K_DEBUG $end
$var reg 1 - jtag_axi_test_i/seeg_top_0_RHS_MOSI_L_DEBUG $end
$var reg 1 . jtag_axi_test_i/seeg_top_0_RHS_MOSI_M_DEBUG $end
$var reg 1 / jtag_axi_test_i/seeg_top_0_RHS_MOSI_N_DEBUG $end
$var reg 1 0 jtag_axi_test_i/seeg_top_0_RHS_MOSI_O_DEBUG $end
$var reg 1 1 jtag_axi_test_i/seeg_top_0_RHS_MOSI_P_DEBUG $end
$var reg 1 2 jtag_axi_test_i/RHS_MISO_A_1 $end
$var reg 1 3 jtag_axi_test_i/RHS_MISO_B_1 $end
$var reg 1 4 jtag_axi_test_i/RHS_MISO_C_1 $end
$var reg 1 5 jtag_axi_test_i/RHS_MISO_D_1 $end
$var reg 1 6 jtag_axi_test_i/RHS_MISO_E_1 $end
$var reg 1 7 jtag_axi_test_i/RHS_MISO_F_1 $end
$var reg 1 8 jtag_axi_test_i/RHS_MISO_G_1 $end
$var reg 1 9 jtag_axi_test_i/RHS_MISO_H_1 $end
$var reg 1 : jtag_axi_test_i/seeg_top_0_RHS_MISO_I_DEBUG $end
$var reg 1 ; jtag_axi_test_i/seeg_top_0_RHS_MISO_J_DEBUG $end
$var reg 1 < jtag_axi_test_i/seeg_top_0_RHS_MISO_K_DEBUG $end
$var reg 1 = jtag_axi_test_i/seeg_top_0_RHS_MISO_L_DEBUG $end
$var reg 1 > jtag_axi_test_i/seeg_top_0_RHS_MISO_M_DEBUG $end
$var reg 1 ? jtag_axi_test_i/seeg_top_0_RHS_MISO_N_DEBUG $end
$var reg 1 @ jtag_axi_test_i/seeg_top_0_RHS_MISO_O_DEBUG $end
$var reg 1 A jtag_axi_test_i/seeg_top_0_RHS_MISO_P_DEBUG $end
$var reg 1 B jtag_axi_test_i/seeg_top_0_RHS_SCLK $end
$var reg 1 C jtag_axi_test_i/seeg_top_0_RHS_CS $end
$var reg 1 D _TRIGGER $end
$var reg 1 E _WINDOW $end
$var reg 1 F _GAP $end
$upscope $end
$enddefinitions $end
#0
$dumpvars
0"
0#
0$
0%
0&
0'
0(
0)
0*
0+
0,
0-
0.
0/
00
01
12
13
14
15
16
17
18
19
1:
0;
1<
0=
1>
1?
0@
0A
1B
0C
0D
1E
0F
$end
#1
0<
0B
#5
1<
1B
#9
0B
#10
0<
#13
1B
#14
1<
#17
0B
#18
0<
#21
1B
#22
1<
#25
0B
#26
0<
#29
1B
#30
1<
#33
0B
#34
0<
#37
1B
#38
1<
#41
0B
#42
0<
#45
1B
#46
1<
#49
0B
#50
0<
#53
1<
1B
#57
0B
#58
0<
#61
1B
#62
1<
#65
0B
#66
0<
#69
1<
1B
#73
0B
#74
0<
#77
1B
#78
1<
#81
0B
#82
0<
#85
1B
#86
1<
#89
0B
#90
0<
#93
1<
1B
#97
0B
#98
0<
#101
1B
#102
1<
#105
0B
#106
0<
#109
1B
#110
1<
#111
0<
#112
1<
#113
0B
#114
0<
#117
1B
#118
1<
#121
0B
#122
0<
#125
1<
1B
#129
0B
#130
0<
#171
1C
#183
1<
#185
0<
#188
0:
#191
0C
#192
1:
#200
1B
#201
1<
#204
0B
#205
0<
#208
1B
#209
1<
#212
0B
#213
0<
#216
1<
1B
#220
0B
#221
0<
#222
1<
#223
0<
#224
1<
1B
#228
0B
#229
0<
#232
1B
#233
1<
#236
0B
#237
0<
#240
1<
1B
#244
0B
#245
0<
#248
1<
1B
#252
0B
#254
0<
#256
1<
1B
#260
0B
#261
0<
#264
1B
#265
1<
#268
0B
#269
0<
#272
1B
#273
1<
#276
0B
#277
0<
#280
1<
1B
#284
0B
#285
0<
#288
1<
1B
#292
0B
#293
0<
#296
1B
#297
1<
#300
1"
1#
1$
1%
1&
1'
1(
1)
1*
1+
1,
1-
1.
1/
10
11
0B
#301
1=
#304
1B
#307
04
#308
0B
#312
1B
#316
0B
#320
1B
#324
0"
0#
0$
0%
0&
0'
0(
0)
0*
0+
0,
0-
0.
0/
00
01
0:
0B
#325
1:
#326
14
0<
0=
#328
1B
#329
1<
#332
0<
0B
#336
1B
#337
1<
#340
0B
#341
0<
#344
1<
1B
#348
0B
#349
0<
#352
1<
1B
#356
0B
#357
0<
#360
1B
#361
1<
#364
0B
#365
0<
#368
1B
#369
1<
#372
0B
#373
0<
#376
1<
1B
#380
0B
#381
0<
#384
1<
1B
#387
0<
#388
0B
#392
1B
#393
1<
#396
0B
#397
0<
#400
1B
#401
1<
#404
0B
#405
0<
#408
1<
1B
#412
0B
#413
0<
#416
1B
#417
1<
#420
0B
#421
0<
#424
1B
#425
1<
#428
0B
#429
0<
#432
1B
#433
1<
#436
0B
#437
0<
#440
1<
1B
#444
0B
#445
0<
#448
1<
1B
#452
0B
#453
0<
#494
1C
#512
1D
#514
0C
#523
1B
#524
1<
#527
0B
#528
0<
#531
1<
1B
#535
0B
#536
0<
#539
1<
1B
#543
0B
#544
0<
#547
1<
1B
#551
0B
#552
0<
#555
1<
1B
#559
0B
#560
0<
#563
1<
1B
#567
0B
#568
0<
#571
1<
1B
#575
0B
#576
0<
#579
1<
1B
#583
0B
#584
0<
#587
1<
1B
#591
0B
#592
0<
#595
1<
1B
#599
0B
#600
0<
#603
1<
1B
#607
0B
#610
0<
#611
1<
1B
#615
1"
1#
1$
1%
1&
1'
1(
1)
1*
1+
1,
1-
1.
1/
10
11
0B
#619
1B
#620
1=
#622
04
#623
0"
0#
0$
0%
0&
0'
0(
0)
0*
0+
0,
0-
0.
0/
00
01
0:
0B
#624
1:
0=
#625
0<
1=
#626
14
0=
#627
1<
1B
#631
0B
#632
0<
#635
1<
1B
#639
0B
#640
0<
#643
1<
1B
#647
0B
#648
0<
#651
1<
1B
#655
0B
#656
0<
#659
1<
1B
#663
0B
#664
0<
#667
1B
#668
1<
#671
0B
#672
0<
#675
1<
1B
#679
0B
#680
0<
#683
1<
1B
#687
0B
#688
0<
#691
1<
1B
#693
0<
#694
1<
#695
0B
#696
0<
#699
1<
1B
#703
0B
#704
0<
#707
1B
#708
1<
#711
0B
#712
0<
#715
1<
1B
#719
0<
0B
#723
1<
1B
#727
0B
#728
0<
#731
1<
1B
#735
0B
#736
0<
#739
1<
1B
#743
0B
#744
0<
#747
1<
1B
#751
0B
#752
0<
#755
1<
1B
#759
0B
#760
0<
#763
1<
1B
#767
0B
#768
0<
#771
1<
1B
#775
0B
#776
0<
#804
1<
#805
0<
#806
1<
#807
0<
#817
1C
#818
0:
#821
1:
#829
1<
#831
0<
#837
1<
0C
#838
0<
#846
1<
1B
#850
0B
#851
0<
#854
1B
#855
1<
#858
0B
#859
0<
#862
1<
1B
#866
0B
#867
0<
#870
1<
1B
#874
0B
#875
0<
#878
1<
1B
#882
0B
#883
0<
#886
1B
#887
1<
#890
0B
#891
0<
#894
1B
#895
1<
#898
0B
#899
0<
#902
1<
1B
#906
0B
#907
0<
#910
1B
#911
1<
#914
0<
0B
#918
1B
#919
1<
#922
0B
#923
0<
#926
1<
1B
#930
0B
#931
0<
#934
1<
1B
#938
1"
1#
1$
1%
1&
1'
1(
1)
1*
1+
1,
1-
1.
1/
10
11
0B
#939
1=
#942
1B
#945
04
#946
0"
0#
0$
0%
0&
0'
0(
0)
0*
0+
0,
0-
0.
0/
00
01
0:
0B
#947
1:
0=
#948
0<
1=
#949
14
0=
#950
1<
1B
#954
0B
#955
0<
#958
1<
1B
#962
1"
1#
1$
1%
1&
1'
1(
1)
1*
1+
1,
1-
1.
1/
10
11
0B
#963
1=
#966
1B
#969
04
#970
0"
0#
0$
0%
0&
0'
0(
0)
0*
0+
0,
0-
0.
0/
00
01
0:
0<
0B
#971
1:
1<
#973
14
0<
0=
#974
1<
1B
#978
0B
#979
0<
#982
1<
1B
#986
0B
#987
0<
#990
1<
1B
#994
0B
#995
0<
#998
1<
1B
#1002
0B
#1003
0<
#1006
1B
#1007
1<
#1010
0B
#1011
0<
#1014
1B
#1015
1<
#1018
0B
#1019
0<
#1022
1<
1B
