src/.Xil/Vivado-2922-ug3/hw_ila_data_1/zip_work/waveform.vcd
$date
        2024-Sep-20 17:11:27
$end
$version
        Vivado v2023.1 (64-bit)
$end
$timescale
        1ps
$end
$scope module dut $end
$var reg 1 " jtag_axi_test_i/seeg_top_0_RHD_MOSI $end
$var reg 1 # jtag_axi_test_i/seeg_top_0_RHD_SCLK $end
$var reg 1 $ jtag_axi_test_i/RHD_MISO1_A_1 $end
$var reg 1 % jtag_axi_test_i/RHD_MISO2_A_1 $end
$var reg 1 & jtag_axi_test_i/RHD_MISO1_B_1 $end
$var reg 1 ' jtag_axi_test_i/RHD_MISO2_B_1 $end
$var reg 1 ( jtag_axi_test_i/RHD_MISO1_C_1 $end
$var reg 1 ) jtag_axi_test_i/RHD_MISO2_C_1 $end
$var reg 1 * jtag_axi_test_i/RHD_MISO1_D_1 $end
$var reg 1 + jtag_axi_test_i/RHD_MISO2_D_1 $end
$var reg 1 , jtag_axi_test_i/RHD_MISO1_E_1 $end
$var reg 1 - jtag_axi_test_i/RHD_MISO2_E_1 $end
$var reg 1 . jtag_axi_test_i/RHD_MISO1_F_1 $end
$var reg 1 / jtag_axi_test_i/RHD_MISO2_F_1 $end
$var reg 1 0 jtag_axi_test_i/RHD_MISO1_G_1 $end
$var reg 1 1 jtag_axi_test_i/RHD_MISO2_G_1 $end
$var reg 1 2 jtag_axi_test_i/RHD_MISO1_H_1 $end
$var reg 1 3 jtag_axi_test_i/RHD_MISO2_H_1 $end
$var reg 1 4 jtag_axi_test_i/seeg_top_0_RHD_MISO1_I_DEBUG $end
$var reg 1 5 jtag_axi_test_i/seeg_top_0_RHD_MISO2_I_DEBUG $end
$var reg 1 6 jtag_axi_test_i/seeg_top_0_RHD_MISO1_J_DEBUG $end
$var reg 1 7 jtag_axi_test_i/seeg_top_0_RHD_MISO2_J_DEBUG $end
$var reg 1 8 jtag_axi_test_i/seeg_top_0_RHD_MISO1_K_DEBUG $end
$var reg 1 9 jtag_axi_test_i/seeg_top_0_RHD_MISO2_K_DEBUG $end
$var reg 1 : jtag_axi_test_i/seeg_top_0_RHD_MISO1_L_DEBUG $end
$var reg 1 ; jtag_axi_test_i/seeg_top_0_RHD_MISO2_L_DEBUG $end
$var reg 1 < jtag_axi_test_i/seeg_top_0_RHD_MISO1_M_DEBUG $end
$var reg 1 = jtag_axi_test_i/seeg_top_0_RHD_MISO2_M_DEBUG $end
$var reg 1 > jtag_axi_test_i/seeg_top_0_RHD_MISO1_N_DEBUG $end
$var reg 1 ? jtag_axi_test_i/seeg_top_0_RHD_MISO2_N_DEBUG $end
$var reg 1 @ jtag_axi_test_i/seeg_top_0_RHD_MISO1_O_DEBUG $end
$var reg 1 A jtag_axi_test_i/seeg_top_0_RHD_MISO2_O_DEBUG $end
$var reg 1 B jtag_axi_test_i/seeg_top_0_RHD_MISO1_P_DEBUG $end
$var reg 1 C jtag_axi_test_i/seeg_top_0_RHD_MISO2_P_DEBUG $end
$var reg 1 D jtag_axi_test_i/seeg_top_0_RHD_CS $end
$var reg 1 E _TRIGGER $end
$var reg 1 F _WINDOW $end
$var reg 1 G _GAP $end
$upscope $end
$enddefinitions $end
#0
$dumpvars
0"
0#
1$
1%
1&
1'
1(
1)
1*
1+
1,
1-
1.
1/
10
11
12
13
04
15
06
17
18
19
0:
1;
1<
0=
0>
1?
1@
1A
0B
0C
0D
0E
1F
0G
$end
#4
05
#5
1:
#8
15
0:
#12
05
#13
1:
#16
15
0:
#20
05
#21
1:
#24
15
0:
#28
05
#29
1:
#32
15
0:
#35
1#
#36
05
16
1:
#37
06
#39
16
#40
15
06
0:
#42
16
#43
06
#44
05
16
1:
#45
06
#47
16
#48
15
06
0:
#50
16
#51
0#
06
#52
05
#53
1:
#56
15
0:
#60
05
#61
1:
#64
15
0:
0;
0A
#67
1#
#68
05
#72
15
#76
05
#80
15
#83
0#
#84
05
#88
15
#92
05
#96
15
1;
1A
#99
1#
#100
05
16
1:
#101
06
#103
16
#104
15
06
0:
#106
16
#107
06
#108
05
16
1:
#110
06
#111
16
#112
15
06
0:
#114
16
#115
0#
06
#116
05
#117
1:
#120
15
0:
#124
05
#125
1:
#128
15
0:
#131
1#
#132
05
1:
#134
16
#135
06
#136
15
16
0:
#138
06
#139
16
#140
05
06
1:
#142
16
#143
06
#144
15
0:
#145
16
#146
06
#147
0#
#148
05
#149
1:
#152
15
0:
#156
05
#157
1:
#160
15
0:
#163
1#
#164
05
16
1:
#165
06
#167
16
#168
15
06
0:
#170
16
#171
06
#172
05
1:
#173
16
#174
06
#175
16
#176
15
0:
#177
06
#178
16
#179
0#
06
#180
05
#181
1:
#184
15
0:
#188
05
#189
1:
#192
15
0:
#195
1#
#196
05
1:
#198
16
#199
06
#200
15
16
0:
#201
06
#203
16
#204
05
1:
#205
06
#206
16
#207
06
#208
15
0:
#209
16
#210
06
#211
0#
#212
05
16
#213
06
1:
#216
15
0:
#220
05
#221
1:
#224
15
0:
#227
1#
#228
16
#230
06
#231
16
#232
06
#234
16
#235
06
#237
16
#238
06
#239
16
#240
06
#242
16
#243
1"
0#
06
#244
14
16
1:
#259
1#
#275
0"
0#
#276
04
0:
#277
06
#278
16
#279
06
#286
0;
0A
#291
1#
#295
05
#299
15
#303
05
#307
0#
15
#311
05
#315
15
16
1;
1A
#316
06
#319
05
#320
1:
#323
1#
15
0:
#326
16
#327
05
06
1:
#329
16
#330
06
#331
15
16
0:
#333
06
#334
16
#335
05
06
1:
#337
16
#338
06
#339
0#
15
0:
#343
05
#344
1:
#347
15
0:
#351
05
#352
1:
#355
1#
15
0:
0;
0A
#359
05
#363
15
#367
05
#371
0#
15
#375
05
#379
15
#383
05
#387
1#
15
#391
05
#395
15
#399
05
#403
0#
15
#407
05
#411
15
#415
05
#419
1#
15
1;
1A
#420
16
#421
06
#423
05
16
1:
#425
06
#426
16
#427
15
06
0:
#429
16
#430
06
#431
05
1:
#432
16
#433
06
#434
16
#435
0#
15
06
0:
#439
05
#440
1:
#443
15
0:
#447
05
#448
1:
#451
1#
15
0:
#454
16
1B
#455
05
06
1:
0A
1C
#457
16
#458
06
#459
15
16
0:
#461
06
#462
16
#463
05
1:
#464
06
#465
16
#466
06
#467
0#
15
0:
#471
05
#472
1:
#475
15
0:
#479
05
16
#480
06
1:
#483
1#
15
0:
#485
16
#486
06
1A
0B
#487
05
16
1:
0C
#489
06
#490
16
#491
15
06
0:
#493
16
#494
06
#495
05
1:
#496
16
#497
06
#498
16
#499
0#
15
06
0:
#503
05
#504
1:
#507
15
0:
#511
05
#512
1:
1E
#515
1#
15
0:
#518
16
#519
05
06
1:
#521
16
#522
06
#523
15
0:
#524
16
#525
06
#526
16
#527
05
1:
#528
06
#529
16
#530
06
#531
0#
15
0:
#535
05
#536
1:
#539
15
0:
#543
05
#544
1:
#547
15
0:
1D
#609
0;
0A
#618
05
#622
15
#626
05
#630
15
#634
05
#638
15
1;
1A
#642
05
#643
1:
#646
15
0:
#650
05
#651
1:
#654
15
0:
#658
05
#659
1:
#662
15
0:
#666
05
16
#667
06
1:
#670
15
0:
#674
05
#675
1:
#678
15
0:
0;
0A
#682
05
#686
15
#690
05
#694
15
#698
05
#702
15
#706
05
#710
15
#714
05
#718
15
#722
05
#726
15
#730
05
#734
15
#738
05
#742
15
1;
1A
#746
05
#747
1:
#750
15
0:
#754
05
#755
1:
#758
15
0:
#762
05
#763
1:
#766
15
0:
#770
05
#771
1:
#774
15
0:
#778
05
#779
1:
0D
#782
15
0:
#786
05
#787
1:
#790
15
0:
#794
05
#795
1:
#798
15
0:
#802
05
#803
1:
#806
15
0:
#810
05
#811
1:
#814
15
0:
#815
1#
#816
16
#817
06
#818
05
1:
#819
16
1C
#820
06
0A
#822
15
16
0:
#823
06
#824
16
#825
06
#826
05
1:
#827
16
#828
06
#830
15
16
0:
#831
0#
06
#834
05
#835
1:
#838
15
0:
#842
05
#843
1:
#846
15
0:
#847
1#
#849
16
#850
05
1:
#851
06
1A
0C
#852
16
#854
15
06
0:
#855
16
#856
06
#858
05
16
1:
#859
06
#861
16
#862
15
06
0:
#863
0#
16
#864
06
#866
05
#868
1:
#870
15
0:
#879
1#
#880
16
#881
06
#883
16
1C
#884
06
0A
#886
16
#887
06
#888
16
#889
06
#891
16
#893
06
#894
16
#895
0#
06
#911
1#
#914
16
#915
06
1A
1B
0C
#916
16
#918
06
#919
16
#920
06
#922
16
#923
06
#925
16
#926
06
#927
0#
16
#928
06
#932
0;
0A
#941
05
#943
1#
#945
15
#949
05
#953
15
#957
05
#959
0#
#961
15
1;
1A
#965
05
#966
1:
#969
15
0:
#973
05
#974
1:
#975
1#
#977
15
0:
#978
16
#979
06
0B
1C
#980
16
0A
#981
05
1:
#982
06
#983
16
#984
06
#985
15
0:
#986
16
#987
06
#989
05
16
1:
#990
06
#991
1"
0#
#992
14
16
1A
#993
15
#994
1B
#997
05
#1001
15
0:
0;
0A
#1005
05
#1007
1#
#1009
15
#1011
0C
#1012
1A
#1013
05
0A
#1014
1A
#1015
0A
#1017
15
#1021
05
#1022
1A
#1023
0"
0#
0A
